<?xml version="1.0" encoding="utf-8"?>
<!-- Generator: Adobe Illustrator 19.2.1, SVG Export Plug-In . SVG Version: 6.00 Build 0)  -->
<svg version="1.1" id="Layer_1" xmlns="http://www.w3.org/2000/svg" xmlns:xlink="http://www.w3.org/1999/xlink" x="0px" y="0px"
	 viewBox="0 0 1698 2614" style="enable-background:new 0 0 1698 2614;" xml:space="preserve">
<style type="text/css">
	.st0{fill:url(#SVGID_1_);}
	.st1{fill:url(#SVGID_2_);}
	.st2{fill:url(#SVGID_3_);}
</style>
<linearGradient id="SVGID_1_" gradientUnits="userSpaceOnUse" x1="-3.3485" y1="-7634.1055" x2="723.1416" y2="-8386.3857" gradientTransform="matrix(-1 0 0 1 1281.92 9201)">
	<stop  offset="0" style="stop-color:#DBDBDB;stop-opacity:0"/>
	<stop  offset="1" style="stop-color:#5E5A5A"/>
</linearGradient>
<path class="st0" d="M16,721.3L764.7,1511h933.3L872.3,721.3H16z"/>
<linearGradient id="SVGID_2_" gradientUnits="userSpaceOnUse" x1="214.945" y1="-8420.6826" x2="279.9549" y2="-7319.0933" gradientTransform="matrix(-1 0 0 1 1281.92 9201)">
	<stop  offset="0" style="stop-color:#FFFFFF;stop-opacity:0"/>
	<stop  offset="1" style="stop-color:#E0E0E0"/>
</linearGradient>
<path class="st1" d="M1652.9,0l-1227,1163.6V2614l1227-1283.1V0z"/>
<linearGradient id="SVGID_3_" gradientUnits="userSpaceOnUse" x1="1104.6445" y1="-8597.3662" x2="1050.3145" y2="-8008.6362" gradientTransform="matrix(-1 0 0 1 1281.92 9201)">
	<stop  offset="0" style="stop-color:#DBDBDB;stop-opacity:0"/>
	<stop  offset="1" style="stop-color:#E3E3E3"/>
</linearGradient>
<path class="st2" d="M17.9,716v797l413-354.3V716H17.9z"/>
</svg>
