<?xml version="1.0" encoding="UTF-8" standalone="no"?>
<svg width="13px" height="13px" viewBox="0 0 13 13" version="1.1" xmlns="http://www.w3.org/2000/svg" xmlns:xlink="http://www.w3.org/1999/xlink">
    <!-- Generator: Sketch 47.1 (45422) - http://www.bohemiancoding.com/sketch -->
    <title>Group Copy 4</title>
    <desc>Created with Sketch.</desc>
    <defs></defs>
    <g id="Work-With-Us" stroke="none" stroke-width="1" fill="none" fill-rule="evenodd">
        <g id="8-Project-Services" transform="translate(-577.000000, -527.000000)">
            <g id="Group-9" transform="translate(577.000000, 518.000000)">
                <g id="Group-Copy-4" transform="translate(0.000000, 9.000000)">
                    <ellipse id="Oval" fill="#0DB268" cx="6.1875" cy="6.253125" rx="6.1875" ry="6.253125"></ellipse>
                    <polygon id="+" fill="#FFFFFF" points="6.99621579 5.45219702 6.99621579 3.19846759 5.78441152 3.19846759 5.78441152 5.45219702 3.53068209 5.45219702 3.53068209 6.66400128 5.78441152 6.66400128 5.78441152 8.91773071 6.99621579 8.91773071 6.99621579 6.66400128 9.24994522 6.66400128 9.24994522 5.45219702"></polygon>
                </g>
            </g>
        </g>
    </g>
</svg>